#SPC
{
	#title "Crystalline"
	#author "S.N.N."
	#comment "Cave Level 2"
	#game "SMW Central Production 2"
}

#samples
{

	#optimized
	#AMM
	#sky_and_dream
	"CPiano.brr"
	"CCymbal.brr"
	"CChoir.brr"
}

;An SMW Central Production II - "Cave Level 2" - SNN ;
;;;;;;;;;;;;;;;;;;;;;;;;;;;;;;;;;;;;;;;;;;;;;;;;;;;;;;
;MACROS;
;;;;;;;;
"CRASH=@0 (\"CCymbal.brr\", $02) h0 v180 $ED $7B $F1 y10 o4 a+2"
"KICK_RIFF=v240  @21 c16 v210 @21c16 v160 @21c16 v100 @21c16"

;s24_10_11_12_13_14_15_16_17_18_19_1A_1B_1C_1D_1E_FF

#0

$EF $FF $40 $40 $F1 $07 $16 $01
w160 t37
@9 v255
o4 y11
$EE $00
@0 ("CPiano.brr", $04) $EE $FF v220
c8^16  c8^16c4c16d16d+16r8^16

o3
>f16d+16d16c16g16d+16d16c16a+16d+16d16c16>c32<a+32g32f32d+32d32c32<a+32

>

[v230 c16<
v200 c16a+16>c16<
v180 c16a+16>c16<
v150 c16a+16>c16<
v120 c16a+16>c16<
v90 c16a+16>c16

v230 d+16
v200 <d+16>c16d+16
v180 <d+16>c16d+16
v150 <d+16>c16d+16
v120 <d+16>c16d+16
v90 <d+16>c16d+16]2

$EE $00 y10
o5 v245 @9
<
c8g8g8^16g32a+32a+16g8^16f16d+16c8
<f16g16a+8>f8d+16f8^16g16f16d+16d16c8
c8g8g8^16g32a+32a+16g8^16f16d+16f4
g8>c8<a+16g16f8d+8^16<g32>d+32d16c16
<a+1
>c1
<a+1
>c1

;;;;;;;;;;;
;PAN FLUTE;
;;;;;;;;;;;
@0 ("CPanFlute.brr", $04) v140
(5)[r2o5 y11 c16<a+16a8f16r16g16r4^8^16]1
y9 f16g16g16g16a8a+8>c8
(5)
y9 c16c16<g8a8a+8f16f16

y10
@0 v240
o3
[>c16r8<c16r8>c16r8>c16r8<a+16r16a16r16
a+16r8<a+16r8a+16r8^16a+32a+32a+32a+32>c16r16<c16r16]2

r1^1

;;;;;;;;;;;
;PAN FLUTE;
;;;;;;;;;;;
@0 ("CPanFlute.brr", $04) v150
o3a+8>c8d8f8a2
a8g8f8d+8c2
<a+8g8a+8>d+2^8

;;;;;;;
;PIANO;
;;;;;;;
$EE $00
@0 ("CPiano.brr", $04) $EE $FF v220
[o5c8^16 v100 c32 v120 c32 v140 c32 v160 c32 v180 c32 v200 c32c2^8
<c8^16d+8^16d4<a+4^8]2

;;;;;;;;;;;;;;;;;;;;;;;;;;;;;;;;;;;;;;;;;;;;;;;;;;;;;;;;;;;;;;;;;;;;;;

#1

;;;;;;;
;PIANO;
;;;;;;;
$EE $00
@0 ("CPiano.brr", $04) $EE $FF v220
o4 
<g8^16g8^16g4g8^16>c1^8^16
<
[c1
d+1]2
[r1]6
d+1
f1
[r1]4 r2

$EE $00
;;;;;;;;;;;
;PAN FLUTE;
;;;;;;;;;;;
@0 ("CPanFlute.brr", $04) v150
o4c16<a+16a8f16r16g16r4^8^16
f16g16g16g16a8a+8>c8
r2c16<a+16a8f16r16g16r16
<a+1
[r1]5

;;;;;;;
;PIANO;
;;;;;;;
$EE $00
@0 ("CPiano.brr", $04) $EE $FF v220 >
[>g8^16 v100 g32 v120 g32 v140 g32 v160 g32 v180 g32 v200 g32g2^8<g8^16g8^16g4f4^8]2

;;;;;;;;;;;;;;;;;;;;;;;;;;;;;;;;;;;;;;;;;;;;;;;;;;;;;;;;;;;;;;;;;;;;;;

#2

;;;;;;;
;PIANO;
;;;;;;;
$EE $00 >
@0 ("CPiano.brr", $04) $EE $FF v220
r2^4^16f1^8^16
[r1]4

$EE $00
;;;;;;;
;CHOIR;
;;;;;;;
v90 @0 ("CChoir.brr", $06) $ED $2A $E6
[o4 f+1a2b2]2

v120
o4e1
f+1
a1
b1
f+1
[e1f+1]3
[r1]30

;;;;;;;;;;;;;;;;;;;;;;;;;;;;;;;;;;;;;;;;;;;;;;;;;;;;;;;;;;;;;;;;;;;;;;

#3

;;;;;;
;BASS;
;;;;;;
r1^1 @14 $ED $7F $ED
o3
[v250 c16< v220 c16> v190 c16< v160 c16> v140 c16< v120 c16> v100 c16c2^16
 v250 d+16<v220 d+16>v190 d+16<v160 d+16>v140 d+16<v120 d+16>v100 c16d+2^16]2
v200
[o3c16<c16>c16<c16>c8<c16>c8^16<c8>c8<a+8
a+16<a+16>a+16r16a+8>f16<f16f16>f16c16<c16>c8<a+8]2

[
o2a+16a+16a+16a+16>c16d+8^16>d+16<d8>d16<c8>c16o2a+16
a+16a+16a+16a+16>c16f8^16>f16<d8>d16<c8>c16o2a+16]2
o2
[> v220 c16 v150 c16 v80 c16<
v220 c16 v150 c16 v80 c16>
v220 c16 v150 c16 v80 c16>
v220 c16<c16>c16o2a+8a8

v220 a+16 v150 a+16 v80 a+16
v220 f16 v150 f16 v80 f16
v220 a+16<a+16>a+16r16 v100 a+32 v130 a+32 v160 a+32 v220 a+32>c16< v220 c16 v150 c16 v80 c16]4
v200
[o2a+16a+16<a+4>a+16a+16<a+2
o3c16c16<c4>c16c16<c2]2

a+16a+16<a+4>a+16a+16d+4d4
c1
[r1]10

;;;;;;;;;;;;;;;;;;;;;;;;;;;;;;;;;;;;;;;;;;;;;;;;;;;;;;;;;;;;;;;;;;;;;;

#7

@2 o5
v90 c16<f16a+16> v100 c16<f16a+16> v115 c16<f16 v120 a+16> v125 c16< v130 f16a+16> v140 c16<f16 v150 g16a16
a+1
v140
[>c16r16<g16r16a+16r16g16>c16r16c16<g16r16a+16r16g16r16
>d+16r16d16<a+16r16>c16r16d+16d16c16<a+16r16g16r16f16r16]2
[>c16<a+16g16c16>c16<a+16f16c16>c16<a+16f16c16a+16f16c16<a+16
f16g16a+16>c16<g16a+16>c16d16f16d16c16<a+16>f16g16d16<a+16]2
>
[<a+16r8<a+16r8>a+16r8<a+16r8>a+16r8^16
>c16r8<c16r8>c16r8<c16r8>c16r8^16]2
[y13 >c16<f16a+16> y12 c16<f16a+16> y10 c16<f16a+16> y8 c16<f16a+16> y7 c16<f16g16a16
a+16d+16f16 y8 a+16d+16f16 y10 a+16d+16f16 y12 a+16d+16f16 y13 a+16d+16f16a+16]4
y10
[r1]5
v80 >c16<f16a+16> v100 c16<f16a+16> v120 c16<f16a+16> v140 c16<f16a+16> v160 c16<f16g16a+16
>d16<f16a+16> v140 d16<f16a+16> v120 d16<f16a+16> v100 c16<f16a+16> v80 c16<f16g16a+16
v200
[r1]10

;;;;;;;;;;;;;;;;;;;;;;;;;;;;;;;;;;;;;;;;;;;;;;;;;;;;;;;;;;;;;;;;;;;;;;

#5

;;;;;;;;;;;;;;;;;;;;;
;Cymbals and Hi-Hats;
;;;;;;;;;;;;;;;;;;;;;
r1^1 

[CRASH r1^1^1^2]2

v200
h-8
o1 @15 a+2 o3 (54)[h0 v90 @22 g+32 v110 @22 g+32 v120 @22 g+32 v140 @22 g+32
                   v150 @22 g+32 v170 @22 g+32 v180 @22 g+32 v200 @22 g+32
                   v180 @22 g+32 v170 @22 g+32 v150 @22 g+32 v140 @22 g+32
                   v120 @22 g+32 v110 @22 g+32 v100 @22 g+32  v90 @22 g+32 v200 ]1
h-8 o2 @15 c1
   @15 d+2 o3 (54)
o2 @15 f1

CRASH

<
           
(69)[v230 @22g+16 v180 @22g+16 v140 @22g+16 v100 @22g+16r4]8
v210 @22g+16>  @0g16  @22<g+16@22g+16>  @0f16r16   @0f16r16
@0f16<@22g+16@22g+16@22g+16r4@22g+16@22g+16@22g+16@22g+16r4
v210 @22g+16 v180 @22g+16 v140 @22g+16 v100 @22g+16r4
v210 @22g+16> @0g16< @22g+16@22g+16>@0f16r16f16r16
f16<
v180 @22g+16 v140 @22g+16 v100 @22g+16r4
(69)

CRASH 

r2 @15 h-8
o2c1
<a+1
>c1
r1
c1
r2>
(54)
r1^2
(54)
[r1]10

;;;;;;;;;;;;;;;;;;;;;;;;;;;;;;;;;;;;;;;;;;;;;;;;;;;;;;;;;;;;;;;;;;;;;;

#6

o3
 @21 c4 @21 c4 @21 c4 @21 c2^4
v100  @29 d16
v110 @29 d16
v120 @29 d16
v130 @29 d16
v150 @29 d16
v170 @29 d16
v190 @29 d16
v210 @29 d16
(60)[y9 KICK_RIFF 
     y11 v240 @29d16 v210 @29d16 v160 @29d16 v100 @29d8 
     y9 v240  @21 c16 v160 @21c8 
     y11 v240  @29 d16 v210 @29d16 v160 @29d16 v100 @29d16]3
y9 KICK_RIFF
y10 v240 @29d16 v210 @29d16 v160 @29d16 v100 @29d8 v240  @21 c16 
v100  @29 d16 v120 @29d16 v140 @29d16 v150 @29d16 v160 @29d16 v170 @29d16
(60)7
y9 KICK_RIFF
v200
y10 @29d16 @29d16  @21 c16 @21c16  @29 d16  @21 c16  @29 d16  @21 c16 v200  @29 d16@29d16@29d32@29d32@29d32@29d32
(60)13
[y9 KICK_RIFF]3
r4
[y10 v230  @21 c4@21c4@21c4@21c1^4]2
[r1]10

;;;;;;;;;;;;;;;;;;;;;;;;;;;;;;;;;;;;;;;;;;;;;;;;;;;;;;;;;;;;;;;;;;;;;;

#4

;;;;;;;
;CHOIR;
;;;;;;;
[r1]6
v90 @0 ("CChoir.brr", $06) $ED $2A $E6
o4
[b1>c+2e2<]2

v120
o4
a1
b1>
d1
e1<
[b1
a1]3

b1

r2
v200
e4d4
<a8b8>c+8d8a2
f+8e8d8<b8>f+2
<a8b8>c+8e8g+2
g+8f+8e8d8<b2
a8f+8a8>d2^8<
b1
[r1]10
                

#amk=1
