#amk 2

#SPC
{
	#title "Mechanical Motif"
	#author "Todd"
	#comment "Grass/Industrial Level 1"
	#game "SMW Central Production 2"
}

#samples
{
	#default
	#AMM
	#sky_and_dream
}

#instruments {
	@14		$AE $8B $00 $07 $00 ;@30
	@21		$8F $E0 $00 $03 $C9 ;@31
	@1		$9B $C8 $00 $03 $00 ;@32
	@29		$BF $D2 $00 $03 $28 ;@33
	@22		$CF $80 $00 $05 $80 ;@34
	@6		$AF $AF $00 $03 $00 ;@35
	@13		$BF $A8 $00 $03 $00 ;@36
}

#0 h3 w210 t50
$EF $FE $0B $0B
$F1 $04 $54 $01
$F4 $02
/
y10v222@30
[q7fo2a16q7d>e16>c+16<e16q7f<g16q7d>d16b16d16]3
q7f<a16q7d>e16>c+16<e16q7fd16<a16q7af+16q73f+16q7f
*3
q7fg16r16q7dg16q73g16q7fa4
[[ [q7fa16r16q79a16q7ca16]3q7fg16e16q7dg16q7fe16]]2
[q7fa16r16q7d>c+16<a16e16q73e16q7d>c+16r16q7f<g16r16q7db16g16d16q73d16q7db16r16]
q7fa16r16q7d>c+16<a16f+16q73f+16q7dg16r16q7fd16r16q7d<b16>d16g16q73g16q7de16r16
*
q7fa16r16q7d>c+16<g16e16q73e16q7d>c+16r16q7fd16r16q7d<b16>d16c+8q73c+16r16
v250
q7f<<a16q7b>a16>c+16<a16q7f<e16q7b>e16>c+16q72c+16q7f<<g16q7b>g16b16g16q7f<d16q7b>d16b16q72b16
q7f<a16q7b>a16>c+16<a16q7f<f+16q7b>f+16g16q72g16q7f<d16q7b>d16<b16>d16q7f<g16q7b>g16e16q72e16
q7f<a16q7b>a16>c+16<a16q7f<e16q7b>e16>c+16q72c+16q7f<<g16q7b>g16b16g16q7f<d16q7b>d16b16q72b16
q7f<a16q7b>a16>c+16<g16q7f<e16q7b>e16>c+16q72c+16q7f<<d16q7b>d16b16>d16c+8q7d<<a8
q7f>>d16q78<d16q7ca16>d16q7ff+16q78<d16q7c>d16q7ff+16f16q78<d16q7c>d16<a16q7f>f16q78<d16q7c>d16q7ff16
v230
e16q78<c+16q7c>c+16<a16q7f>e16q78<c+16q7c>c+16q7fe16d+16q78<c16q7c>c16<a16q7f>d+16q78<c16q7c>c16q7fd+16
<b8q7cf+8q7f>d8q7c<b8q7f>f+8q7cd8q7fa8q7cf+8
q7f<e2r2
a2.^16q78g+16q7ag16q7cf+16
q7ff8q7dc8>d8c16<a16g16r16e8f16r16>e8
q7f<e8q7d$F4 $01>d+32e16$F4 $01^32g8<a16b16g8d16r16e8>e16<g16
q7fd8q7d>c16d8<<a16>c16d8g16a16e16g16c16d16<a16
q7f>c8q7db16>c8<b16>c16e16q7f<c8q7dg16a8g16a16>c16
q7f<<a8q7d>g+16a8g+16a16>c+16q7f<<a8q7d>e16f+8e16f+16a16
q7fc8q7dg16>e16q7f<<g16q7d>g16>e16<a16q7fc8q7dg16>e16q7f<<g16q7d>g16>e16<a16
q7f<a8q7d>g16>c+16q7f<<e16q7d>>c+16f+16<a16q7f<a16q7d>g16>c+16<a16q7f<e16q7d>a16>f+16e16

#1 h3
y10v155@32$DE $06 $0F $23
[q7fo3a8q78a8q7fg8q78g8
q7fa8q78a8q7fe8q78e8
q7fa8q78a8q7fg8q78g8]
q7fa8q78a8q7fb8q78b8
*
q7ce16q72e16q7fe16q73e16q7fa8q78a8
r1
[q7fa16q73a16q7aa16q7ca16]3
q7fg16q7ce16q7fg16q7ce16
v130$DF
(30)[q7fa8q78a8]2
(31)[q7fg8q78g8]2
(30)
q7fa8q7cg8
(31)
q7fe8q78e8
(30)2
(31)2
(30)
q7fg8q7cf+8
(31)
q7fa4
y11v160@2$DF h-2
o4a16q73a16q7fa16g+16a16q73a16q7fe16q73e16q7fg8f+16g32f+32e16q73e16q7fd8
c+16d16e16c+16d16q73d16q7f<b16q73b16q7fg8f+16q73f+16q7fe8a16q73a16
q7f>a16q73a16q7fa16g+16a16q73a16q7fe16q73e16q7fg8f+16g32f+32e16q73e16q7fd8
a16q73a16q7fa16b16>c+16q73c+16q7f<a8g8e16q73e16q7fa8q73a8
v150@3 h3 $ED $2F $93 y9q7fo5d8<a16y11q78>d16y9q7f<f+16y11q78a16y9q7fd16y11q78f+16y9q7f>d8<a16y11q78>d16y9q7f<f16y11q78a16y9q7fd16y11q78f16y9q7f
y9q7f>c+8<a16y11q78>c+16y9q7f<e16y11q78a16y9q7fc+16y11q78e16y9q7f>c8<a16y11q78>c16y9q7f<d+16y11q78a16y9q7fc16y11q78d+16y9q7f
<b16y9q7ca16y11q7db16y9q7f>d16y11f+16y9q7cd16y11q7df+16y9q7fa16y11b16y9q7ca16y11q7db16y9q7f>d16y11f+16y9q7cd16y11q7df+16y9q7fa16
y11q78a16r16y9q76a16r16y11q74a16r16y9q72a16r16
r1^4.
y11v145@36$DE $0C $0C $2E
q7fo4a8>c4r8<a8>e4a4
b4^16e16g16e16>c4<b4
a4r8e8>d8c16d8.<a8
b2r8>c8<b8g8
a2^8g8.f+8.
e2..d8e1

#2 h3
y9v155@32$DE $06 $0F $23
[q7fo4c+8q78c+8q7f<b8q78b8
q7f>c+8q78c+8q7f<g8q78g8
q7f>c+8q78c+8q7f<b8q78b8]
q7f>c+8q78c+8q7fd8q78d8
*
q7c<g16q72g16q7fg16q73g16q7f>c+8q78c+8
r1
[q7f<e16q73e16q7ae16q7ce16]3
q7fd16q7c<b16q7f>d16q7c<b16
v130$DF
[[ (32)[q7f>>c+8q78c+8]2
(33)[q7f<b8q78b8]2
(32)
(34)[q7f>c+8q7cc+8]
(33)
<q7fa8q78a8
(32)2
(33)2
(32)
(34)
(33)
q7f>c+4 ]]2
v142$DE $06 $0F $23
<f+2f2
e2d+2
f+8d8a8f+8>c+8<a8>e8c+8
r4<f+4g+2
r2a2
q7fa8q78a16q7fa8q78a16q7da8q7fa8a8q78a16q7fa8q7da16
q7fb8q78b16q7fb8q78b16q7db8q7fb8b8q78b16q7fb8q7db16
q7ff8q78f16q7ff8q78f16q7df8q7ff8f8q78f16q7ff8q7df16
q7f>c8q78c8q7fc8q7dc8q7f<g8q78g8q7fg8q7dg8
q7fa8q78a8q7fa8q7da8q7fa8q78a8q7fa8q7da8
q7f>c8q78c8q7fc8q7dc8q7f<g8q78g8q7fg8q7dg8
q7fa8q78a8q7fa8q7ca8q7fa8q78a8q7fa8q7da8

#3 h3
y11v155@32$DE $06 $0F $23
[q7fo4e8q78e8q7fd8q78d8]3
q7fe8q78e16q7af+32g32q7fa8q78a8
*3
q7c<b16q72b16q7fb16q73b16q7f>e8q78e8
r1
[q7fc+16q73c+16q7ac+16q7cc+16]3
q7f<b16q7cg16q7fb16q7cg16
v130$DF
[[ (35)[q7f>e8q78e8]2
(36)[q7fd8q78d8]2
(35)
q7ff+8q7ce8
(36)
q7fc+8q78c+8
(35)2
(36)2
(35)
q7fe8q7ce8
(36)
q7fe4 ]]2
v142$DE $06 $0F $23
d2d2
c+2c2
<b8f+8>d8<b8>f+8d8a8f+8
r4^8<a8>c+4<b4
r2^4>e4
q7fc8q78c16q7fc8q78c16q7dc8q7fc8c8q78c16q7fc8q7dc16
q7fd8q78d16q7fd8q78d16q7dd8q7fd8d8q78d16q7fd8q7dd16
q7f<a8q78a16q7fa8q78a16q7da8q7fa8a8q78a16q7fa8q7da16
q7f>e8q78e8q7fe8q7de8q7fc8q78c8q7fc8q7dc8
q7fc+8q78c+8q7fc+8q7dc+8q7f<b8q78b8q7fb8q7d>c+8
q7fe8q78e8q7fe8q7de8q7fc8q78c8q7fc8q7dc8
q7fc+8q78c+8q7fc+8q7cc+8q7fc+8q78c+8q7fc+8q7dc+8

#4 y10v255$FA $03 $1C
(2)[$F4 $03q7f@31o4c8$F4 $03q79@34c8q7a@33c8q79@34c8$F4 $03q7f@31c8$F4 $03q79@34c8q7a@33c8q79c8]
$F4 $03q7f@31o4c8$F4 $03q79@34c8q7a@33c8q79@34c8$F4 $03q7f@31c8$F4 $03q79@34c8q7a@33$ED $3F $C0 c+4$DD $00 $30 <<a+
(2)
$F4 $03q7f@31o4c8$F4 $03q79@34c8q7a@33c8q79@34c8$F4 $03q7f@31c8$F4 $03q79@34c8q7a@33c8q77c16q79c16
[$F4 $03q7f@31o4c8$F4 $03q74@34c16q77c16q7a@33c8q74@34c16q77c16]
$F4 $03q7f@31o4c8$F4 $03q74@34c16q77c16q79@33c8q7ac8
*
$F4 $03q7f@31o4c8$F4 $03q74@34c16q77c16q79@33c16q76c16q78c16q7cc16
(2)3
$F4 $03q7f@31o4c8$F4 $03q79@34c8q7a@33c8q79@34c8$F4 $03q7f@31c8$F4 $03q79@34c8q7a@33$ED $3F $C0 c+4$DD $00 $30 <<a+
[$F4 $03q7f@31o4c16$F4 $03q76@34c16q78c16q75c16q7a@33c8q78@34c16q75c16$F4 $03q7f@31c16$F4 $03q76@34c16$F4 $03q7f@31c16$F4 $03q75@34c16q7a@33c8q78@34c16q75c16]3
$F4 $03q7f@31o4c16$F4 $03q76@34c16q78c16q75c16q7a@33c8q78@34c16q75c16$F4 $03q7f@31c16$F4 $03q76@34c16$F4 $03q7f@31c16$F4 $03q75@34c16q7a@33c8q78q77c16q79c16
(2)2
[r1]3
(2)7

#5 h3
y10v255
[q77@34o4c4c4c4c16q75c16q79c8]
q77o4c4c4c16q73c8.q77c4
*
q77o4c4c4c16q73c8.q77c16q72c16q79c16q73c16
[q79o4c16q73c8.]3
q78o4c16q74c16q79c16q75c16
*3
q78c16q74c16q77c16q79c16
v195@35$DE $06 $12 $25
[q7fo4a16q73a16q7fa16g+16a16q73a16q7fe16q73e16q7fg8f+16g32f+32e16q73e16q7fd8
c+16d16e16c+16d16q73d16q7f<b16q73b16q7fg8f+16q73f+16q7fe8a16q73a16
q7f>a16q73a16q7fa16g+16a16q73a16q7fe16q73e16q7fg8f+16g32f+32e16q73e16q7fd8
a16q73a16q7fa16b16>c+16q73c+16q7f<a8g8e16q73e16q7fa8q73a8]2
$DF 
q7fo4f+4a16q73a16q7fb16q73b16q7f>c+8<b8a16q73a16q7ff16q73f16
q7fe4a16q73a16q7fe16q73e16q7fd+4a16q73a16q7fd+16q73d+16
q7f<b1
>c+4.<q7c$F4 $01b16a32$F4 $01^32q7fb2
r2^4a16b16>c16d16
e2g4a4
g2e4d4
c4d4e4c4
g2e4d4
e2c+4e4
g2e2
a1

#6
[r1]6
y11v95@35$DE $06 $12 $25
r8q7fo5
[c16q73c16q7fc16<b16>c16q73c16q7f<g16q73g16q7fa+8a16a+32a32g16q73g16q7ff8]
e16f16g16e16f16q73f16q7fd16q73d16q7f<a+8a16q73a16q7fg8>c16q73c16
*
>q7Fc16q73c16q7fc16d16e16q73e16q7fc8<a+8g16q73g16q7f>c8
y10v130@32$DF
(30)2
(31)2
(30)
q7fo3a8q7cg8
(31)
q7fe8q78e8
(30)2
(31)2
(30)
q7f>c8<q7ca8
(31)
q7f>c4
v142$DE $06 $0F $23
[c2]4
<f8d8a8f8>c8<a8>e8c8<
r8f4^8g+2
r4g2^4
q7fg+8q78g+16q7fg+8q78g+16q7dg+8q7fg+8g+8q78g+16q7fg+8q7dg+16
q7fa+8q78a+16q7fa+8q78a+16q7da+8q7fa+8a+8q78a+16q7fa+8q7da+16
q7fd+8q78d+16q7fd+8q78d+16q7dd+8q7fd+8d+8q78d+16q7fd+8q7dd+16
q7fa+8q78a+8q7fa+8q7da+8q7fg8q78g8q7fg8q7dg8
q7fg8q78g8q7fg8q7dg8q7fg8q78g8q7fg8q7dg8>
q7fc8q78c8q7fc8q7dc8<q7ff8q78f8q7ff8q7df8
q7fg8q78g8q7fg8q7cg8q7fg8q78g8q7fg8q7dg8

#7
[r1]6
y10v255
q77@34o4c4c4c4c16q75c16q79c8
q77c4c4c16q73c8.q77c8q79c8
q77c4c4c4c16q75c16q79c8
q77c4c4c16q73c8.q77c4
[q79o4c4c16q76c8.q79c8c8c16q76c8.]3
q79o4c4c16q76c8.q79c8c8c16q74c16q76c16q79c16
q77@34o4c4c4c4c16q75c16q79c8
q77c4c4c16q73c8.q77c8q79c8
[r1]3
q78c4q78c4q78c16q73c8.q78c8q7ac8
[q77@34c4c4c4c16q75c16q79c8
q77c4c4c16q73c8.q77c8q79c8]3