;Revised by Ruberjig.

#amk 2

#SPC
{
	#title "Palaces of Unease"
	#author "Kipernal"
	#comment "Switch Palace theme"
	#game "SMW Central Production 2"
}

#samples
{
	#optimized
	"Guitar.brr"
"glock.brr"
"Kick.brr"
"izu_snare.brr"
"izu_kick.brr"
}

#instruments
{

@3	$8E $B8 $00 $03 $00
@13	$8E $B4 $00 $06 $00
@12	$8E $B4 $00 $05 $00
@6	$8C $8C $00 $02 $00
@0 $88 $B1 $00 $06 $00

"Kick.brr"  $8E $95 $8D $08 $00
"izu_snare.brr" $01 $00 $60 $0A $00
"Guitar.brr" $DE $D2 $00 $06 $00
@1	$8A $CA $00 $02 $00
"glock.brr" $AD $98 $00 $05 $40

"izu_snare.brr" $01 $00 $60 $06 $00
@18	$8C $CD $00 $02 $00
}

"semi = $FA $02 $04"
$F0

$F5 $DA $12 $C4 $16 $F6 $D9 $12 $2F

$EF $FF $14 $14 ; reverb
$F1 $05 $a0 $00	;
$f4 $02

#0 w160 ;semi
 t26@30v170 w180 @30 $eb $00 $01 $00 
r16^32
(1)[ y0 $DC $30 $14 o4g16d16>d32<d32g16d8 $DC $30 $00 g+16d+16>d+32<d+32g+16d+8]9

(5)[ y0 $DC $30 $14 g16d16>d32<d32g16d8 $DC $30 $00 g+16d+16>d+32<d+32g+16d+32]
$E8 $D0 $C0
/
r16^32 
(1) g16d16>d32<d32g16d8 $DC $30 $00 g+16d+16>d+32<d+32g+16d+32
@33 $fa $02 $07 v210
o3g8^32f32g16^32a16^32a+4^8
g8^32f32g16^32d16^32f4^8
g8^32f32g16^32a16^32a+4^32>c16^32
$F4 $01 d4^8d+4^8 $F4 $01

<g8^32f32g16^32a16^32a+16^32 v151 d32f32a32>d32d+32d32<a32f32d32v240 g8^32f32>c16^32<a+16^32f16^32 v151 <a32>c32e32a32a+32a32e32c32<a32
v240 >g8^32f32g16^32a16^32a+4^32>f16^32
$F4 $01 d4^8c4^8 $F4 $01 
@30 $eb $00 $01 $00 $fa $02 $00 v170
r16^32
   [  y0 $DC $30 $14 g16 d16 >d32 <d32 g16 d8  $DC $30 $00 g16 d16 >d32 <d32 g16 d8
      y0 $DC $30 $14 g+16d+16>d+32<d+32g+16d+8 $DC $30 $00 g+16d+16>d+32<d+32g+16d+8
      y0 $DC $30 $14 a16 e16>e32<e32a16 e8 $DC $30 $00 a16 e16>e32<e32a16 e8 
      y0 $DC $30 $14 a+16f16>f32<f32a+16f8 $DC $30 $00 a+16f16>f32<f32a+16] f8 *1 f32
@33 $fa $02 $07 v210
o3g8^32f32g16^32a16^32a+4^8
g8^32f32g16^32d16^32f4^8
g8^32f32g16^32a16^32a+4^32>c16^32
$F4 $01 d4^8d+4^8 $F4 $01

<g8^32f32g16^32a16^32a+16^32 v151 d32f32a32>d32d+32d32<a32f32d32v240 g8^32f32>c16^32<a+16^32f16^32 v151 <a32>c32e32a32a+32a32e32c32<a32
v240 >g8^32f32g16^32a16^32a+4^32>f16^32
$F4 $01 d4^8c4^8 $F4 $01 
@30 $eb $00 $01 $00 r16. $fa $02 $00 v170
(1)2

#1 ;semi
@31 v160
(7)[y0 o2g16>d8g16^32d16^32 $DC $48 $14 <g+16>d+8g+16^32d+16^32]10

$E8 $D0 $C0
/
(7)2
(8)[y0 <g16>d8g16^32d16^32 $DC $48 $14 <a+16>f8a+16 ^32f16 ^32](7)
(8)(7)
(8)(7)
(8)(7)
(9)[y0 <g16>d8g16^32d16^32 $DC $48 $14<g16 >d8g16^32 d16^32y0 <g+16>d+8g16^32d+16^32 $DC $48 $14<g16 >d+8 g16^32 d+16^32]
(10)[y0 <a16>e8g16^32e16^32$DC $48 $14<a16 >e8g16^32 e16^32y0 <a+16>f8a+16^32f16^32  $DC $48 $14<a+16>f8  a+16^32f16 ^32]
(9)
(10)
(8)(7)
(8)(7)
(8)(7)
(8)(7)3




#2 semi
$de $20 $0C $40 $fa $02 $07
(11)[@32 v113 y10 o4a32a32>c32c32]60

/
(11)12

@33 y12 v240
o3g8^32f32g16^32a16^32a+4^8
g8^32f32g16^32d16^32f4^8
g8^32f32g16^32a16^32a+4^32>c16^32
$F4 $01 d4^8d+4^8 $F4 $01

<g8^32f32g16^32a16^32a+16^32 v151 d32f32a32>d32d+32d32<a32f32d32v240 g8^32f32>c16^32<a+16^32f16^32 v151 <a32>c32e32a32a+32a32e32c32<a32
v240 >g8^32f32g16^32a16^32a+4^32>f16^32
$F4 $01 d4^8c4^8 $F4 $01 

d8^32<g4^8^16^32>d8d+8^32<g4^8^16^32>d+8
e8^32<g4^8^16^32>e8f8^32<g8^16^32 v154 >f32 v162 d32 v171 c32 v180 d32 v191 c32 v200 <a32 v209 >c32 v217 <a32 v226 g32 v238 a32 v246 >c32 v240 c+32
d8^32<g4^8^16^32>d8d+8^32<g4^8^16^32>d+8
e8^32<g4^8^16^32>e8f8^32

a4.^32 $DD $00 $24 $B1 ^8.

<g8^32f32g16^32a16^32a+16^32 v151 d32f32a32>d32d+32d32<a32f32d32v240 g8^32f32>c16^32<a+16^32f16^32 v151 <a32>c32e32a32a+32a32e32c32<a32
v240 >g8^32f32g16^32a16^32a+4^32>c16^32
$F4 $01 d4^8d+4^8 $F4 $01
<g8^32f32g16^32a16^32a+16^32 v151 d32f32a32>d32d+32d32<a32f32d32v240 g8^32f32>c16^32<a+16^32f16^32 v151 <a32>c32e32a32a+32a32e32c32<a32
v240 >g8^32f32g16^32a16^32a+4^32>c16^32
$F4 $01 d4^8d+4^8 $F4 $01
@12 v113 (11)12



#3
r1^2 v240 o3
(12)[@35y9c16^32@35c16^32 @35c16^32 @35c16^32 @35c16^32 @35c16^32 @35c16^32 @35c16 @35c32]2 
(13)[@35y9c16^32 @36y11c16^32 @35y9c16 @35c32 @36y11c16^32 @35y9c16^32 @36y11c16^32 @35y9c16 @35c32 @36y11c16 @36y11c32]6
/
(13)28




#7
[r1^2]5
/^1^2

(11)3
(14)[o4b32b32>d32d32]3
(11)9
(14)3
(11)9
(14)3
(11)9
(14)3
(11)6
[r1^2]4
(11)3
(14)3
(11)9
(14)3
(11)9
(14)3
(11)9
(14)3
(11)6
^1^2



#5 semi
r1^2 $fa $02 $07
^1^4^16 @40v240o4c32 @40v136c64 @40v191c64 @40v226c32 @36v128<c32 @36v186c32 @36v243c32
@38 v220
(15)[g4^8g+4^8g4^8f4^8]
g4^8g+4^8g4^8a+4^8
(15)
/g4^8g+4^8b4^8>c4^8
(16)[<g4^8a+4^8g4^8f4^8]
(17)[g4^8a+4^8b4^8>c4^8]
(16)
(17)
(11)48
@41 v220
(16)
(17)
(16)
(17)
(15)



#6 $ee $08 semi
[r2]6 $fa $02 $07
@41 v230 o2
(65)[g4^8g+4^8g4^8f4^8]
g4^8g+4^8g4^8a+4^8
(65) 
/@41 v230 o2 g4^8g+4^8b4^8>c4^8
(66)[<g4^8a+4^8g4^8f4^8]
(67)[g4^8a+4^8b4^8>c4^8]
(66)
(67)
[r1.]6
@39
y15 o4 v151 
g16d16f16g16d16a16a+16d+16f16g16f16d+16
y5
g16d16f16g16d16f16g16d16f16d16c16<a+16
y10
 >g16 v151 d16f16g16d16a16a+16d+16f16g16a16a+16>c16<d16f16g16a16>c16<a+16>d16<f16d16f16a+16
g1^2



#4 ;semi
r1^2 
^1^4^8^32  @36v128o3c32 @36v186c32 @36v243c32
^1^2
^1^2
@37 v240
(18)[ y14 $DC $48 $06 <

 c32 
 c32 
 g32> 
 c32< 
 g32> 
 c32<

 c32
 c32
 g32>
 c32<
 g32>
 c32< $DC $48 $0E 
 c+32 
 c+32
 g+32>
 c+32<
 g+32>
 c+32<
 c+32
 c+32
 g+32>
 c+32<
 g+32>
 c+32 ]2
/
(18)2

(19)[ y14 $DC $48 $06 <
 c32
 c32
 g32>
 c32<
 g32>
 c32<
 c32
 c32
 g32>
 c32<
 g32>
 c32< $DC $48 $0E  
 d+32 
 d+32
 a+32>
 d+32<
 a+32>
 d+32<
 d+32
 d+32
 a+32>
 d+32<
 a+32>
 d+32 ]
(18)
(19)
(18)
(19)
(18)
(19)
(18)
(20)[ y14 $DC $48 $06 <
 c32
 c32
 g32>
 c32<
 g32>
 c32<
 c32
 c32
 g32>
 c32<
 g32>
 c32< $DC $48 $0E 
 c32 
 c32
 g32>
 c32<
 g32>
 c32<
 c32
 c32
 g32>
 c32<
 g32>
 c32 ]
(21)[ y14 $DC $48 $06 <
 c+32
 c+32
 g32>
 c+32<
 g32>
 c+32<
 c+32
 c+32
 g32>
 c+32<
 g32>
 c+32 $DC $48 $0E  <
 c+32 
 c+32
 g32>
 c+32<
 g32>
 c+32<
 c+32
 c+32
 g32>
 c+32<
 g32>
 c+32 ]
(22)[  y14 $DC $48 $06 <
 d32
 d32
 g32>
 d32<
 g32>
 d32<
 d32
 d32
 g32>
 d32<
 g32>
 d32< $DC $48 $0E  
 d32 
 d32
 g32>
 d32<
 g32>
 d32<
 d32
 d32
 g32>
 d32<
 g32>
 d32 ]
(20)3
(21)
(22)
(19)
(18)
(19)
(18)
(19)
(18)
(19)
(18)
(19)
(18)
[ y14 $DC $48 $06 <
 c32
 c32
 g32>
 c32<
 g32>
 c32<
 c32
 c32
 g32>
 c32<
 g32>
 c32< $DC $48 $0E 
 c+32 
 c+32
 g+32>
 c+32<
 g+32>
 c+32<
 c+32
 c+32
 g+32>
 c+32<
 g+32>
 c+32 ]2