#jsr changePause $DA $02 $0C $54 $B4 $B0 $B4 $18 $B0

#asm changePause
{
	mov	a, $038C
	bne	.return
	mov	a, !SpeedUpBackUp	; \
	mov	$0387, a		; / Restore the tempo.

	mov	a, #$00
	mov	!PauseMusic, a
.return
	ret
}