CHANNEL 0 SIZE:				0x014F
CHANNEL 1 SIZE:				0x01FD
CHANNEL 2 SIZE:				0x0149
CHANNEL 3 SIZE:				0x00B9
CHANNEL 4 SIZE:				0x00D5
CHANNEL 5 SIZE:				0x00CB
CHANNEL 6 SIZE:				0x005F
CHANNEL 7 SIZE:				0x00A9
LOOP DATA SIZE:				0x032D
POINTERS AND INSTRUMENTS SIZE:		0x001C
SAMPLES SIZE:				0x9AE8
ECHO SIZE:				0x1800
SONG TOTAL DATA SIZE:			0x0B3F
FREE ARAM (APPROXIMATE):		0x3D8B

CHANNEL 0 TICKS:			0x16128
CHANNEL 1 TICKS:			0x16128
CHANNEL 2 TICKS:			0x16128
CHANNEL 3 TICKS:			0x16128
CHANNEL 4 TICKS:			0x16128
CHANNEL 5 TICKS:			0x16128
CHANNEL 6 TICKS:			0x16128
CHANNEL 7 TICKS:			0x16128

SONG INTRO LENGTH IN SECONDS:		0
SONG MAIN LOOP LENGTH IN SECONDS:	126
SONG TOTAL LENGTH IN SECONDS:		126
