CHANNEL 0 SIZE:				0x0092
CHANNEL 1 SIZE:				0x0049
CHANNEL 2 SIZE:				0x0075
CHANNEL 3 SIZE:				0x00C8
CHANNEL 4 SIZE:				0x00AB
CHANNEL 5 SIZE:				0x0009
CHANNEL 6 SIZE:				0x0060
CHANNEL 7 SIZE:				0x0053
LOOP DATA SIZE:				0x020E
POINTERS AND INSTRUMENTS SIZE:		0x0016
SAMPLES SIZE:				0x65CF
ECHO SIZE:				0x2800
SONG TOTAL DATA SIZE:			0x05A3
FREE ARAM (APPROXIMATE):		0x6840

CHANNEL 0 TICKS:			0x7872
CHANNEL 1 TICKS:			0x8256
CHANNEL 2 TICKS:			0x8256
CHANNEL 3 TICKS:			0x7296
CHANNEL 4 TICKS:			0x8256
CHANNEL 5 TICKS:			0x19200
CHANNEL 6 TICKS:			0x6336
CHANNEL 7 TICKS:			0x8256

SONG INTRO LENGTH IN SECONDS:		0
SONG MAIN LOOP LENGTH IN SECONDS:	83.3684
SONG TOTAL LENGTH IN SECONDS:		83.3684
