CHANNEL 0 SIZE:				0x0024
CHANNEL 1 SIZE:				0x0007
CHANNEL 2 SIZE:				0x001F
CHANNEL 3 SIZE:				0x018C
CHANNEL 4 SIZE:				0x00B7
CHANNEL 5 SIZE:				0x008F
CHANNEL 6 SIZE:				0x0088
CHANNEL 7 SIZE:				0x00CC
LOOP DATA SIZE:				0x034A
POINTERS AND INSTRUMENTS SIZE:		0x0028
SAMPLES SIZE:				0x7348
ECHO SIZE:				0x3000
SONG TOTAL DATA SIZE:			0x07E2
FREE ARAM (APPROXIMATE):		0x5088

CHANNEL 0 TICKS:			0x7296
CHANNEL 1 TICKS:			0x7296
CHANNEL 2 TICKS:			0x7296
CHANNEL 3 TICKS:			0x7296
CHANNEL 4 TICKS:			0x7296
CHANNEL 5 TICKS:			0x7296
CHANNEL 6 TICKS:			0x7296
CHANNEL 7 TICKS:			0x7296

SONG INTRO LENGTH IN SECONDS:		0
SONG MAIN LOOP LENGTH IN SECONDS:	79.3043
SONG TOTAL LENGTH IN SECONDS:		79.3043
