CHANNEL 0 SIZE:				0x01D7
CHANNEL 1 SIZE:				0x00AF
CHANNEL 2 SIZE:				0x00D3
CHANNEL 3 SIZE:				0x013E
CHANNEL 4 SIZE:				0x01BC
CHANNEL 5 SIZE:				0x00BA
CHANNEL 6 SIZE:				0x01FE
CHANNEL 7 SIZE:				0x001D
LOOP DATA SIZE:				0x028B
POINTERS AND INSTRUMENTS SIZE:		0x0046
SAMPLES SIZE:				0x79E3
ECHO SIZE:				0x3000
SONG TOTAL DATA SIZE:			0x0BF9
FREE ARAM (APPROXIMATE):		0x45D6

CHANNEL 0 TICKS:			0x9984
CHANNEL 1 TICKS:			0x10368
CHANNEL 2 TICKS:			0x28800
CHANNEL 3 TICKS:			0x28992
CHANNEL 4 TICKS:			0x28642
CHANNEL 5 TICKS:			0x19200
CHANNEL 6 TICKS:			0x29184
CHANNEL 7 TICKS:			0x28608

SONG INTRO LENGTH IN SECONDS:		0
SONG MAIN LOOP LENGTH IN SECONDS:	87.5789
SONG TOTAL LENGTH IN SECONDS:		87.5789
