CHANNEL 0 SIZE:				0x0014
CHANNEL 1 SIZE:				0x0012
CHANNEL 2 SIZE:				0x0014
CHANNEL 3 SIZE:				0x0016
CHANNEL 4 SIZE:				0x0015
CHANNEL 5 SIZE:				0x0018
CHANNEL 6 SIZE:				0x0019
CHANNEL 7 SIZE:				0x0000
LOOP DATA SIZE:				0x0000
POINTERS AND INSTRUMENTS SIZE:		0x0014
SAMPLES SIZE:				0x6F68
ECHO SIZE:				0x0000
SONG TOTAL DATA SIZE:			0x00AA
FREE ARAM (APPROXIMATE):		UNKNOWN

CHANNEL 0 TICKS:			0x0605
CHANNEL 1 TICKS:			0x0509
CHANNEL 2 TICKS:			0x0509
CHANNEL 3 TICKS:			0x0509
CHANNEL 4 TICKS:			0x0509
CHANNEL 5 TICKS:			0x0509
CHANNEL 6 TICKS:			0x0509
CHANNEL 7 TICKS:			0x0000

SONG INTRO LENGTH IN SECONDS:		0
SONG MAIN LOOP LENGTH IN SECONDS:	5.30208
SONG TOTAL LENGTH IN SECONDS:		5.30208
