CHANNEL 0 SIZE:				0x00D9
CHANNEL 1 SIZE:				0x00D9
CHANNEL 2 SIZE:				0x00B7
CHANNEL 3 SIZE:				0x00BB
CHANNEL 4 SIZE:				0x0091
CHANNEL 5 SIZE:				0x0117
CHANNEL 6 SIZE:				0x00DB
CHANNEL 7 SIZE:				0x009E
LOOP DATA SIZE:				0x018C
POINTERS AND INSTRUMENTS SIZE:		0x0040
SAMPLES SIZE:				0x5F33
ECHO SIZE:				0x2800
SONG TOTAL DATA SIZE:			0x0811
FREE ARAM (APPROXIMATE):		0x6C6E

CHANNEL 0 TICKS:			0x7424
CHANNEL 1 TICKS:			0x7424
CHANNEL 2 TICKS:			0x7424
CHANNEL 3 TICKS:			0x7424
CHANNEL 4 TICKS:			0x7424
CHANNEL 5 TICKS:			0x7424
CHANNEL 6 TICKS:			0x7424
CHANNEL 7 TICKS:			0x7424

SONG INTRO LENGTH IN SECONDS:		11.1304
SONG MAIN LOOP LENGTH IN SECONDS:	69.5652
SONG TOTAL LENGTH IN SECONDS:		80.6957
