CHANNEL 0 SIZE:				0x00F4
CHANNEL 1 SIZE:				0x010D
CHANNEL 2 SIZE:				0x00B8
CHANNEL 3 SIZE:				0x0122
CHANNEL 4 SIZE:				0x0020
CHANNEL 5 SIZE:				0x002F
CHANNEL 6 SIZE:				0x001B
CHANNEL 7 SIZE:				0x00BB
LOOP DATA SIZE:				0x0148
POINTERS AND INSTRUMENTS SIZE:		0x0028
SAMPLES SIZE:				0x6F68
ECHO SIZE:				0x0000
SONG TOTAL DATA SIZE:			0x0670
FREE ARAM (APPROXIMATE):		0x85DA

CHANNEL 0 TICKS:			0x4416
CHANNEL 1 TICKS:			0x4416
CHANNEL 2 TICKS:			0x4416
CHANNEL 3 TICKS:			0x4416
CHANNEL 4 TICKS:			0x5184
CHANNEL 5 TICKS:			0x5184
CHANNEL 6 TICKS:			0x5184
CHANNEL 7 TICKS:			0x4416

SONG INTRO LENGTH IN SECONDS:		1.77778
SONG MAIN LOOP LENGTH IN SECONDS:	39.1111
SONG TOTAL LENGTH IN SECONDS:		40.8889
