CHANNEL 0 SIZE:				0x0035
CHANNEL 1 SIZE:				0x00AF
CHANNEL 2 SIZE:				0x007D
CHANNEL 3 SIZE:				0x00CF
CHANNEL 4 SIZE:				0x012A
CHANNEL 5 SIZE:				0x008F
CHANNEL 6 SIZE:				0x0051
CHANNEL 7 SIZE:				0x0000
LOOP DATA SIZE:				0x01DE
POINTERS AND INSTRUMENTS SIZE:		0x004C
SAMPLES SIZE:				0xA21A
ECHO SIZE:				0x2000
SONG TOTAL DATA SIZE:			0x0664
FREE ARAM (APPROXIMATE):		0x3334

CHANNEL 0 TICKS:			0x10752
CHANNEL 1 TICKS:			0x10752
CHANNEL 2 TICKS:			0x10752
CHANNEL 3 TICKS:			0x10752
CHANNEL 4 TICKS:			0x10860
CHANNEL 5 TICKS:			0x10752
CHANNEL 6 TICKS:			0x13440
CHANNEL 7 TICKS:			0x0000

SONG INTRO LENGTH IN SECONDS:		0
SONG MAIN LOOP LENGTH IN SECONDS:	70.7368
SONG TOTAL LENGTH IN SECONDS:		70.7368
