CHANNEL 0 SIZE:				0x004B
CHANNEL 1 SIZE:				0x001A
CHANNEL 2 SIZE:				0x01C4
CHANNEL 3 SIZE:				0x0116
CHANNEL 4 SIZE:				0x00E6
CHANNEL 5 SIZE:				0x020B
CHANNEL 6 SIZE:				0x029A
CHANNEL 7 SIZE:				0x0228
LOOP DATA SIZE:				0x0149
POINTERS AND INSTRUMENTS SIZE:		0x0034
SAMPLES SIZE:				0x8F3F
ECHO SIZE:				0x3000
SONG TOTAL DATA SIZE:			0x0C6F
FREE ARAM (APPROXIMATE):		0x3004

CHANNEL 0 TICKS:			0x6144
CHANNEL 1 TICKS:			0x6144
CHANNEL 2 TICKS:			0x6144
CHANNEL 3 TICKS:			0x6144
CHANNEL 4 TICKS:			0x6144
CHANNEL 5 TICKS:			0x6144
CHANNEL 6 TICKS:			0x6144
CHANNEL 7 TICKS:			0x6144

SONG INTRO LENGTH IN SECONDS:		9.84615
SONG MAIN LOOP LENGTH IN SECONDS:	68.9231
SONG TOTAL LENGTH IN SECONDS:		78.7692
