CHANNEL 0 SIZE:				0x00A4
CHANNEL 1 SIZE:				0x0042
CHANNEL 2 SIZE:				0x000C
CHANNEL 3 SIZE:				0x000D
CHANNEL 4 SIZE:				0x0132
CHANNEL 5 SIZE:				0x002E
CHANNEL 6 SIZE:				0x003F
CHANNEL 7 SIZE:				0x0042
LOOP DATA SIZE:				0x00A7
POINTERS AND INSTRUMENTS SIZE:		0x003A
SAMPLES SIZE:				0x796D
ECHO SIZE:				0x2000
SONG TOTAL DATA SIZE:			0x03C1
FREE ARAM (APPROXIMATE):		0x5E84

CHANNEL 0 TICKS:			0x3073
CHANNEL 1 TICKS:			0x3121
CHANNEL 2 TICKS:			0x3097
CHANNEL 3 TICKS:			0x3073
CHANNEL 4 TICKS:			0x3073
CHANNEL 5 TICKS:			0x3457
CHANNEL 6 TICKS:			0x3073
CHANNEL 7 TICKS:			0x3073

SONG INTRO LENGTH IN SECONDS:		0.00877193
SONG MAIN LOOP LENGTH IN SECONDS:	26.9474
SONG TOTAL LENGTH IN SECONDS:		26.9561
