CHANNEL 0 SIZE:				0x0075
CHANNEL 1 SIZE:				0x0066
CHANNEL 2 SIZE:				0x0053
CHANNEL 3 SIZE:				0x0066
CHANNEL 4 SIZE:				0x0066
CHANNEL 5 SIZE:				0x0041
CHANNEL 6 SIZE:				0x004B
CHANNEL 7 SIZE:				0x0017
LOOP DATA SIZE:				0x0376
POINTERS AND INSTRUMENTS SIZE:		0x003A
SAMPLES SIZE:				0x6F98
ECHO SIZE:				0x2800
SONG TOTAL DATA SIZE:			0x064D
FREE ARAM (APPROXIMATE):		0x5DCD

CHANNEL 0 TICKS:			0x6912
CHANNEL 1 TICKS:			0x6912
CHANNEL 2 TICKS:			0x6912
CHANNEL 3 TICKS:			0x6912
CHANNEL 4 TICKS:			0x6912
CHANNEL 5 TICKS:			0x6912
CHANNEL 6 TICKS:			0x6912
CHANNEL 7 TICKS:			0x7296

SONG INTRO LENGTH IN SECONDS:		12.3871
SONG MAIN LOOP LENGTH IN SECONDS:	43.3548
SONG TOTAL LENGTH IN SECONDS:		55.7419
