CHANNEL 0 SIZE:				0x00A9
CHANNEL 1 SIZE:				0x009A
CHANNEL 2 SIZE:				0x006E
CHANNEL 3 SIZE:				0x006D
CHANNEL 4 SIZE:				0x000B
CHANNEL 5 SIZE:				0x002C
CHANNEL 6 SIZE:				0x0000
CHANNEL 7 SIZE:				0x0000
LOOP DATA SIZE:				0x01DF
POINTERS AND INSTRUMENTS SIZE:		0x0016
SAMPLES SIZE:				0x7348
ECHO SIZE:				0x2800
SONG TOTAL DATA SIZE:			0x044A
FREE ARAM (APPROXIMATE):		0x5C20

CHANNEL 0 TICKS:			0x6720
CHANNEL 1 TICKS:			0x6720
CHANNEL 2 TICKS:			0x6720
CHANNEL 3 TICKS:			0x6720
CHANNEL 4 TICKS:			0x6720
CHANNEL 5 TICKS:			0x6720
CHANNEL 6 TICKS:			0x0000
CHANNEL 7 TICKS:			0x0000

SONG INTRO LENGTH IN SECONDS:		0
SONG MAIN LOOP LENGTH IN SECONDS:	57.931
SONG TOTAL LENGTH IN SECONDS:		57.931
